^C:\USERS\BADZYUK\DESKTOP\HW\SOCKETTEST\CHATSOLUTION\CHATCLIENT\STDAFX.CPP
C:\USERS\BADZYUK\DESKTOP\HW\SOCKETTEST\CHATSOLUTION\CHATCLIENT\DEBUG\CHATCLIENT.PCH
C:\USERS\BADZYUK\DESKTOP\HW\SOCKETTEST\CHATSOLUTION\CHATCLIENT\DEBUG\STDAFX.OBJ
C:\USERS\BADZYUK\DESKTOP\HW\SOCKETTEST\CHATSOLUTION\CHATCLIENT\DEBUG\VC100.PDB
^C:\USERS\BADZYUK\DESKTOP\HW\SOCKETTEST\CHATSOLUTION\CHATCLIENT\ADDRESS.CPP|C:\USERS\BADZYUK\DESKTOP\HW\SOCKETTEST\CHATSOLUTION\CHATCLIENT\CHATCLIENT.CPP|C:\USERS\BADZYUK\DESKTOP\HW\SOCKETTEST\CHATSOLUTION\CHATCLIENT\EASYSOCKET.CPP
C:\USERS\BADZYUK\DESKTOP\HW\SOCKETTEST\CHATSOLUTION\CHATCLIENT\DEBUG\ADDRESS.OBJ
C:\USERS\BADZYUK\DESKTOP\HW\SOCKETTEST\CHATSOLUTION\CHATCLIENT\DEBUG\EASYSOCKET.OBJ
C:\USERS\BADZYUK\DESKTOP\HW\SOCKETTEST\CHATSOLUTION\CHATCLIENT\DEBUG\CHATCLIENT.OBJ
^C:\USERS\BADZYUK\DESKTOP\HW\SOCKETTEST\CHATSOLUTION\CHATCLIENT\ADDRESS.CPP
C:\USERS\BADZYUK\DESKTOP\HW\SOCKETTEST\CHATSOLUTION\CHATCLIENT\DEBUG\VC100.PDB
^C:\USERS\BADZYUK\DESKTOP\HW\SOCKETTEST\CHATSOLUTION\CHATCLIENT\CHATCLIENT.CPP
C:\USERS\BADZYUK\DESKTOP\HW\SOCKETTEST\CHATSOLUTION\CHATCLIENT\DEBUG\VC100.PDB
C:\USERS\BADZYUK\DESKTOP\HW\SOCKETTEST\CHATSOLUTION\CHATCLIENT\DEBUG\CHATCLIENT.OBJ
^C:\USERS\BADZYUK\DESKTOP\HW\SOCKETTEST\CHATSOLUTION\CHATCLIENT\EASYSOCKET.CPP
C:\USERS\BADZYUK\DESKTOP\HW\SOCKETTEST\CHATSOLUTION\CHATCLIENT\DEBUG\VC100.PDB
