^C:\Users\Badzyuk\Desktop\BnrJavaAPI_Project\TestProjectForJna\CLibraryDll\TestUnionCLibrary\TestUnionCLibrary.vcxproj
C:\Users\Badzyuk\Desktop\BnrJavaAPI_Project\TestProjectForJna\CLibraryDll\TestUnionCLibrary\Debug\TestUnionCLibrary.lib
C:\Users\Badzyuk\Desktop\BnrJavaAPI_Project\TestProjectForJna\CLibraryDll\TestUnionCLibrary\Debug\TestUnionCLibrary.lib
C:\Users\Badzyuk\Desktop\BnrJavaAPI_Project\TestProjectForJna\CLibraryDll\TestUnionCLibrary\Debug\TestUnionCLibrary.exp
C:\Users\Badzyuk\Desktop\BnrJavaAPI_Project\TestProjectForJna\CLibraryDll\TestUnionCLibrary\Debug\TestUnionCLibrary.exp
