^C:\USERS\BADZYUK\DESKTOP\HW\SOCKETTEST\CHATSOLUTION\CHATCLIENT\RELEASE\CHATCLIENT.EXE.INTERMEDIATE.MANIFEST
/nologo /verbose /outputresource:"C:\Users\Badzyuk\Desktop\HW\SocketTest\ChatSolution\Release\ChatClient.exe;#1" /manifest Release\ChatClient.exe.intermediate.manifest
^C:\USERS\BADZYUK\DESKTOP\HW\SOCKETTEST\CHATSOLUTIONTCPIP\CHATCLIENT\RELEASE\CHATCLIENT.EXE.INTERMEDIATE.MANIFEST
/nologo /verbose /outputresource:"C:\Users\Badzyuk\Desktop\HW\SocketTest\ChatSolutionTCPIP\Release\ChatClient.exe;#1" /manifest Release\ChatClient.exe.intermediate.manifest
