^C:\USERS\BADZYUK\DESKTOP\HW\LIBTRIAL\LIBTRIAL\DEBUG\CHILDFRM.OBJ|C:\USERS\BADZYUK\DESKTOP\HW\LIBTRIAL\LIBTRIAL\DEBUG\CLASSVIEW.OBJ|C:\USERS\BADZYUK\DESKTOP\HW\LIBTRIAL\LIBTRIAL\DEBUG\FILEVIEW.OBJ|C:\USERS\BADZYUK\DESKTOP\HW\LIBTRIAL\LIBTRIAL\DEBUG\LIBTRIAL.OBJ|C:\USERS\BADZYUK\DESKTOP\HW\LIBTRIAL\LIBTRIAL\DEBUG\LIBTRIAL.RES|C:\USERS\BADZYUK\DESKTOP\HW\LIBTRIAL\LIBTRIAL\DEBUG\LIBTRIALDOC.OBJ|C:\USERS\BADZYUK\DESKTOP\HW\LIBTRIAL\LIBTRIAL\DEBUG\LIBTRIALVIEW.OBJ|C:\USERS\BADZYUK\DESKTOP\HW\LIBTRIAL\LIBTRIAL\DEBUG\MAINFRM.OBJ|C:\USERS\BADZYUK\DESKTOP\HW\LIBTRIAL\LIBTRIAL\DEBUG\OUTPUTWND.OBJ|C:\USERS\BADZYUK\DESKTOP\HW\LIBTRIAL\LIBTRIAL\DEBUG\PROPERTIESWND.OBJ|C:\USERS\BADZYUK\DESKTOP\HW\LIBTRIAL\LIBTRIAL\DEBUG\STDAFX.OBJ|C:\USERS\BADZYUK\DESKTOP\HW\LIBTRIAL\LIBTRIAL\DEBUG\VIEWTREE.OBJ
C:\USERS\BADZYUK\DESKTOP\HW\LIBTRIAL\LIBTRIAL\DEBUG\LIBTRIAL.RES
C:\USERS\BADZYUK\DESKTOP\HW\LIBTRIAL\LIBTRIAL\DEBUG\CHILDFRM.OBJ
C:\USERS\BADZYUK\DESKTOP\HW\LIBTRIAL\LIBTRIAL\DEBUG\CLASSVIEW.OBJ
C:\USERS\BADZYUK\DESKTOP\HW\LIBTRIAL\LIBTRIAL\DEBUG\FILEVIEW.OBJ
C:\USERS\BADZYUK\DESKTOP\HW\LIBTRIAL\LIBTRIAL\DEBUG\LIBTRIAL.OBJ
C:\USERS\BADZYUK\DESKTOP\HW\LIBTRIAL\LIBTRIAL\DEBUG\LIBTRIALDOC.OBJ
C:\USERS\BADZYUK\DESKTOP\HW\LIBTRIAL\LIBTRIAL\DEBUG\LIBTRIALVIEW.OBJ
C:\USERS\BADZYUK\DESKTOP\HW\LIBTRIAL\LIBTRIAL\DEBUG\MAINFRM.OBJ
C:\USERS\BADZYUK\DESKTOP\HW\LIBTRIAL\LIBTRIAL\DEBUG\OUTPUTWND.OBJ
C:\USERS\BADZYUK\DESKTOP\HW\LIBTRIAL\LIBTRIAL\DEBUG\PROPERTIESWND.OBJ
C:\USERS\BADZYUK\DESKTOP\HW\LIBTRIAL\LIBTRIAL\DEBUG\STDAFX.OBJ
C:\USERS\BADZYUK\DESKTOP\HW\LIBTRIAL\LIBTRIAL\DEBUG\VIEWTREE.OBJ
C:\PROGRAM FILES (X86)\MICROSOFT VISUAL STUDIO 11.0\VC\INCLUDE\MANIFEST\DPIAWARE.MANIFEST
C:\WINDOWS\GLOBALIZATION\SORTING\SORTDEFAULT.NLS
C:\PROGRAM FILES (X86)\MICROSOFT VISUAL STUDIO 11.0\VC\ATLMFC\LIB\MFC110UD.LIB
C:\PROGRAM FILES (X86)\MICROSOFT VISUAL STUDIO 11.0\VC\ATLMFC\LIB\MFCS110UD.LIB
C:\PROGRAM FILES (X86)\MICROSOFT VISUAL STUDIO 11.0\VC\LIB\MSVCRTD.LIB
C:\PROGRAM FILES (X86)\WINDOWS KITS\8.0\LIB\WIN8\UM\X86\KERNEL32.LIB
C:\PROGRAM FILES (X86)\WINDOWS KITS\8.0\LIB\WIN8\UM\X86\USER32.LIB
C:\PROGRAM FILES (X86)\WINDOWS KITS\8.0\LIB\WIN8\UM\X86\GDI32.LIB
C:\PROGRAM FILES (X86)\WINDOWS KITS\8.0\LIB\WIN8\UM\X86\MSIMG32.LIB
C:\PROGRAM FILES (X86)\WINDOWS KITS\8.0\LIB\WIN8\UM\X86\COMDLG32.LIB
C:\PROGRAM FILES (X86)\WINDOWS KITS\8.0\LIB\WIN8\UM\X86\WINSPOOL.LIB
C:\PROGRAM FILES (X86)\WINDOWS KITS\8.0\LIB\WIN8\UM\X86\ADVAPI32.LIB
C:\PROGRAM FILES (X86)\WINDOWS KITS\8.0\LIB\WIN8\UM\X86\SHELL32.LIB
C:\PROGRAM FILES (X86)\WINDOWS KITS\8.0\LIB\WIN8\UM\X86\COMCTL32.LIB
C:\PROGRAM FILES (X86)\WINDOWS KITS\8.0\LIB\WIN8\UM\X86\SHLWAPI.LIB
C:\PROGRAM FILES (X86)\WINDOWS KITS\8.0\LIB\WIN8\UM\X86\UXTHEME.LIB
C:\PROGRAM FILES (X86)\WINDOWS KITS\8.0\LIB\WIN8\UM\X86\WINDOWSCODECS.LIB
C:\PROGRAM FILES (X86)\WINDOWS KITS\8.0\LIB\WIN8\UM\X86\DWMAPI.LIB
C:\PROGRAM FILES (X86)\WINDOWS KITS\8.0\LIB\WIN8\UM\X86\UUID.LIB
C:\PROGRAM FILES (X86)\MICROSOFT VISUAL STUDIO 11.0\VC\ATLMFC\LIB\ATLSD.LIB
C:\PROGRAM FILES (X86)\WINDOWS KITS\8.0\LIB\WIN8\UM\X86\OLE32.LIB
C:\PROGRAM FILES (X86)\WINDOWS KITS\8.0\LIB\WIN8\UM\X86\OLEAUT32.LIB
C:\PROGRAM FILES (X86)\WINDOWS KITS\8.0\LIB\WIN8\UM\X86\OLEDLG.LIB
C:\PROGRAM FILES (X86)\WINDOWS KITS\8.0\LIB\WIN8\UM\X86\URLMON.LIB
C:\PROGRAM FILES (X86)\WINDOWS KITS\8.0\LIB\WIN8\UM\X86\GDIPLUS.LIB
C:\PROGRAM FILES (X86)\MICROSOFT VISUAL STUDIO 11.0\VC\LIB\COMSUPPWD.LIB
C:\PROGRAM FILES (X86)\MICROSOFT VISUAL STUDIO 11.0\VC\LIB\OLDNAMES.LIB
C:\PROGRAM FILES (X86)\WINDOWS KITS\8.0\LIB\WIN8\UM\X86\WININET.LIB
C:\PROGRAM FILES (X86)\WINDOWS KITS\8.0\LIB\WIN8\UM\X86\WS2_32.LIB
C:\PROGRAM FILES (X86)\WINDOWS KITS\8.0\LIB\WIN8\UM\X86\MSWSOCK.LIB
C:\PROGRAM FILES (X86)\WINDOWS KITS\8.0\BIN\X86\MT.EXE
C:\PROGRAM FILES (X86)\WINDOWS KITS\8.0\BIN\X86\RC.EXE
C:\PROGRAM FILES (X86)\MICROSOFT VISUAL STUDIO 11.0\VC\BIN\CVTRES.EXE
C:\WINDOWS\SYSTEM32\TZRES.DLL
C:\WINDOWS\SYSTEM32\RSAENH.DLL
