^C:\USERS\BADZYUK\DESKTOP\HW\SOCKETTEST\CHATSOLUTION\CHATCLIENT\DEBUG\ADDRESS.OBJ|C:\USERS\BADZYUK\DESKTOP\HW\SOCKETTEST\CHATSOLUTION\CHATCLIENT\DEBUG\CHATCLIENT.EXE.EMBED.MANIFEST.RES|C:\USERS\BADZYUK\DESKTOP\HW\SOCKETTEST\CHATSOLUTION\CHATCLIENT\DEBUG\CHATCLIENT.OBJ|C:\USERS\BADZYUK\DESKTOP\HW\SOCKETTEST\CHATSOLUTION\CHATCLIENT\DEBUG\EASYSOCKET.OBJ|C:\USERS\BADZYUK\DESKTOP\HW\SOCKETTEST\CHATSOLUTION\CHATCLIENT\DEBUG\STDAFX.OBJ
C:\USERS\BADZYUK\DESKTOP\HW\SOCKETTEST\CHATSOLUTION\DEBUG\CHATCLIENT.ILK
C:\USERS\BADZYUK\DESKTOP\HW\SOCKETTEST\CHATSOLUTION\DEBUG\CHATCLIENT.EXE
C:\USERS\BADZYUK\DESKTOP\HW\SOCKETTEST\CHATSOLUTION\CHATCLIENT\DEBUG\CHATCLIENT.EXE.INTERMEDIATE.MANIFEST
C:\USERS\BADZYUK\DESKTOP\HW\SOCKETTEST\CHATSOLUTION\DEBUG\CHATCLIENT.PDB
^C:\USERS\BADZYUK\DESKTOP\HW\SOCKETTEST\CHATSOLUTIONTCPIP\CHATCLIENT\DEBUG\ADDRESS.OBJ|C:\USERS\BADZYUK\DESKTOP\HW\SOCKETTEST\CHATSOLUTIONTCPIP\CHATCLIENT\DEBUG\CHATCLIENT.EXE.EMBED.MANIFEST.RES|C:\USERS\BADZYUK\DESKTOP\HW\SOCKETTEST\CHATSOLUTIONTCPIP\CHATCLIENT\DEBUG\CHATCLIENT.OBJ|C:\USERS\BADZYUK\DESKTOP\HW\SOCKETTEST\CHATSOLUTIONTCPIP\CHATCLIENT\DEBUG\EASYSOCKET.OBJ|C:\USERS\BADZYUK\DESKTOP\HW\SOCKETTEST\CHATSOLUTIONTCPIP\CHATCLIENT\DEBUG\STDAFX.OBJ
C:\USERS\BADZYUK\DESKTOP\HW\SOCKETTEST\CHATSOLUTIONTCPIP\DEBUG\CHATCLIENT.ILK
C:\USERS\BADZYUK\DESKTOP\HW\SOCKETTEST\CHATSOLUTIONTCPIP\DEBUG\CHATCLIENT.EXE
C:\USERS\BADZYUK\DESKTOP\HW\SOCKETTEST\CHATSOLUTIONTCPIP\CHATCLIENT\DEBUG\CHATCLIENT.EXE.INTERMEDIATE.MANIFEST
C:\USERS\BADZYUK\DESKTOP\HW\SOCKETTEST\CHATSOLUTIONTCPIP\DEBUG\CHATCLIENT.PDB
