^C:\USERS\BADZYUK\DESKTOP\HW\SOCKETTEST\MEMORY\DEBUG\MEMORY.OBJ|C:\USERS\BADZYUK\DESKTOP\HW\SOCKETTEST\MEMORY\DEBUG\STDAFX.OBJ
C:\USERS\BADZYUK\DESKTOP\HW\SOCKETTEST\MEMORY\DEBUG\MEMORY.EXE
C:\USERS\BADZYUK\DESKTOP\HW\SOCKETTEST\MEMORY\DEBUG\MEMORY.EXE.INTERMEDIATE.MANIFEST
C:\USERS\BADZYUK\DESKTOP\HW\SOCKETTEST\MEMORY\DEBUG\MEMORY.PDB
