^C:\USERS\BADZYUK\DESKTOP\HWS\SOCKETTEST\CHATSOLUTIONWITHPROTOBUF\CHATCLIENT\STDAFX.CPP
/c /IC:\Users\Badzyuk\Desktop\HWS\SocketTest\ChatSolutionWithProtobuf\ChatClient\imports /ZI /nologo /W3 /WX- /Od /Oy- /D WIN32 /D _DEBUG /D _CONSOLE /D _UNICODE /D UNICODE /Gm /EHsc /RTC1 /MDd /GS /fp:precise /Zc:wchar_t /Zc:forScope /Yc"stdafx.h" /Fp"DEBUG\CHATCLIENT.PCH" /Fo"DEBUG\\" /Fd"DEBUG\VC110.PDB" /Gd /TP /analyze- C:\USERS\BADZYUK\DESKTOP\HWS\SOCKETTEST\CHATSOLUTIONWITHPROTOBUF\CHATCLIENT\STDAFX.CPP
^C:\USERS\BADZYUK\DESKTOP\HWS\SOCKETTEST\CHATSOLUTIONWITHPROTOBUF\CHATCLIENT\ADDRESS.CPP
/c /IC:\Users\Badzyuk\Desktop\HWS\SocketTest\ChatSolutionWithProtobuf\ChatClient\imports /ZI /nologo /W3 /WX- /Od /Oy- /D WIN32 /D _DEBUG /D _CONSOLE /D _UNICODE /D UNICODE /Gm /EHsc /RTC1 /MDd /GS /fp:precise /Zc:wchar_t /Zc:forScope /Fo"DEBUG\\" /Fd"DEBUG\VC110.PDB" /Gd /TP /analyze- C:\USERS\BADZYUK\DESKTOP\HWS\SOCKETTEST\CHATSOLUTIONWITHPROTOBUF\CHATCLIENT\ADDRESS.CPP
^C:\USERS\BADZYUK\DESKTOP\HWS\SOCKETTEST\CHATSOLUTIONWITHPROTOBUF\CHATCLIENT\CHATCLIENT.CPP
/c /IC:\Users\Badzyuk\Desktop\HWS\SocketTest\ChatSolutionWithProtobuf\ChatClient\imports /ZI /nologo /W3 /WX- /Od /Oy- /D WIN32 /D _DEBUG /D _CONSOLE /D _UNICODE /D UNICODE /Gm /EHsc /RTC1 /MDd /GS /fp:precise /Zc:wchar_t /Zc:forScope /Fo"DEBUG\\" /Fd"DEBUG\VC110.PDB" /Gd /TP /analyze- C:\USERS\BADZYUK\DESKTOP\HWS\SOCKETTEST\CHATSOLUTIONWITHPROTOBUF\CHATCLIENT\CHATCLIENT.CPP
^C:\USERS\BADZYUK\DESKTOP\HWS\SOCKETTEST\CHATSOLUTIONWITHPROTOBUF\CHATCLIENT\EASYSOCKET.CPP
/c /IC:\Users\Badzyuk\Desktop\HWS\SocketTest\ChatSolutionWithProtobuf\ChatClient\imports /ZI /nologo /W3 /WX- /Od /Oy- /D WIN32 /D _DEBUG /D _CONSOLE /D _UNICODE /D UNICODE /Gm /EHsc /RTC1 /MDd /GS /fp:precise /Zc:wchar_t /Zc:forScope /Fo"DEBUG\\" /Fd"DEBUG\VC110.PDB" /Gd /TP /analyze- C:\USERS\BADZYUK\DESKTOP\HWS\SOCKETTEST\CHATSOLUTIONWITHPROTOBUF\CHATCLIENT\EASYSOCKET.CPP
^C:\USERS\BADZYUK\DESKTOP\HWS\SOCKETTEST\CHATSOLUTIONWITHPROTOBUF\CHATCLIENT\MESSAGE.PB.CC
/c /IC:\Users\Badzyuk\Desktop\HWS\SocketTest\ChatSolutionWithProtobuf\ChatClient\imports /ZI /nologo /W3 /WX- /Od /Oy- /D WIN32 /D _DEBUG /D _CONSOLE /D _UNICODE /D UNICODE /Gm /EHsc /RTC1 /MDd /GS /fp:precise /Zc:wchar_t /Zc:forScope /Fo"DEBUG\\" /Fd"DEBUG\VC110.PDB" /Gd /TP /analyze- C:\USERS\BADZYUK\DESKTOP\HWS\SOCKETTEST\CHATSOLUTIONWITHPROTOBUF\CHATCLIENT\MESSAGE.PB.CC
